\select@language {spanish}
\beamer@sectionintoc {1}{Introducci\IeC {\'o}n}{3}{0}{1}
\beamer@sectionintoc {2}{Estado del Arte}{6}{0}{2}
\beamer@sectionintoc {3}{Herramientas}{8}{0}{3}
\beamer@sectionintoc {4}{Resultados}{15}{0}{4}
\beamer@sectionintoc {5}{Conclusiones y Trabajo Futuro}{17}{0}{5}
