\headcommand {\slideentry {0}{0}{1}{1/1}{}{0}}
\headcommand {\beamer@framepages {1}{1}}
\headcommand {\slideentry {0}{0}{2}{2/2}{}{0}}
\headcommand {\beamer@framepages {2}{2}}
\headcommand {\beamer@sectionpages {1}{2}}
\headcommand {\beamer@subsectionpages {1}{2}}
\headcommand {\sectionentry {1}{Introducci\IeC {\'o}n}{3}{Introducci\IeC {\'o}n}{0}}
\headcommand {\slideentry {1}{0}{1}{3/3}{}{0}}
\headcommand {\beamer@framepages {3}{3}}
\headcommand {\slideentry {1}{0}{2}{4/4}{}{0}}
\headcommand {\beamer@framepages {4}{4}}
\headcommand {\slideentry {1}{0}{3}{5/5}{}{0}}
\headcommand {\beamer@framepages {5}{5}}
\headcommand {\beamer@sectionpages {3}{5}}
\headcommand {\beamer@subsectionpages {3}{5}}
\headcommand {\sectionentry {2}{Estado del Arte}{6}{Estado del Arte}{0}}
\headcommand {\slideentry {2}{0}{1}{6/6}{}{0}}
\headcommand {\beamer@framepages {6}{6}}
\headcommand {\slideentry {2}{0}{2}{7/7}{}{0}}
\headcommand {\beamer@framepages {7}{7}}
\headcommand {\beamer@sectionpages {6}{7}}
\headcommand {\beamer@subsectionpages {6}{7}}
\headcommand {\sectionentry {3}{Herramientas}{8}{Herramientas}{0}}
\headcommand {\slideentry {3}{0}{1}{8/8}{}{0}}
\headcommand {\beamer@framepages {8}{8}}
\headcommand {\slideentry {3}{0}{2}{9/9}{}{0}}
\headcommand {\beamer@framepages {9}{9}}
\headcommand {\slideentry {3}{0}{3}{10/10}{}{0}}
\headcommand {\beamer@framepages {10}{10}}
\headcommand {\slideentry {3}{0}{4}{11/11}{}{0}}
\headcommand {\beamer@framepages {11}{11}}
\headcommand {\slideentry {3}{0}{5}{12/12}{}{0}}
\headcommand {\beamer@framepages {12}{12}}
\headcommand {\slideentry {3}{0}{6}{13/13}{}{0}}
\headcommand {\beamer@framepages {13}{13}}
\headcommand {\slideentry {3}{0}{7}{14/14}{}{0}}
\headcommand {\beamer@framepages {14}{14}}
\headcommand {\beamer@sectionpages {8}{14}}
\headcommand {\beamer@subsectionpages {8}{14}}
\headcommand {\sectionentry {4}{Resultados}{15}{Resultados}{0}}
\headcommand {\slideentry {4}{0}{1}{15/15}{}{0}}
\headcommand {\beamer@framepages {15}{15}}
\headcommand {\slideentry {4}{0}{2}{16/16}{}{0}}
\headcommand {\beamer@framepages {16}{16}}
\headcommand {\beamer@sectionpages {15}{16}}
\headcommand {\beamer@subsectionpages {15}{16}}
\headcommand {\sectionentry {5}{Conclusiones y Trabajo Futuro}{17}{Conclusiones y Trabajo Futuro}{0}}
\headcommand {\slideentry {5}{0}{1}{17/17}{}{0}}
\headcommand {\beamer@framepages {17}{17}}
\headcommand {\slideentry {5}{0}{2}{18/18}{}{0}}
\headcommand {\beamer@framepages {18}{18}}
\headcommand {\beamer@partpages {1}{18}}
\headcommand {\beamer@subsectionpages {17}{18}}
\headcommand {\beamer@sectionpages {17}{18}}
\headcommand {\beamer@documentpages {18}}
\headcommand {\def \inserttotalframenumber {18}}
