<?xml version="1.0" encoding="UTF-8" standalone="no"?>
<svg
   xmlns:dc="http://purl.org/dc/elements/1.1/"
   xmlns:cc="http://creativecommons.org/ns#"
   xmlns:rdf="http://www.w3.org/1999/02/22-rdf-syntax-ns#"
   xmlns:svg="http://www.w3.org/2000/svg"
   xmlns="http://www.w3.org/2000/svg"
   xmlns:xlink="http://www.w3.org/1999/xlink"
   xmlns:sodipodi="http://sodipodi.sourceforge.net/DTD/sodipodi-0.dtd"
   xmlns:inkscape="http://www.inkscape.org/namespaces/inkscape"
   width="626.00653pt"
   height="320.85092pt"
   viewBox="0 0 626.00653 320.85092"
   version="1.2"
   id="svg451"
   sodipodi:docname="inception.svg"
   inkscape:version="0.92.2 (5c3e80d, 2017-08-06)">
  <metadata
     id="metadata455">
    <rdf:RDF>
      <cc:Work
         rdf:about="">
        <dc:format>image/svg+xml</dc:format>
        <dc:type
           rdf:resource="http://purl.org/dc/dcmitype/StillImage" />
        <dc:title></dc:title>
      </cc:Work>
    </rdf:RDF>
  </metadata>
  <sodipodi:namedview
     pagecolor="#ffffff"
     bordercolor="#666666"
     borderopacity="1"
     objecttolerance="10"
     gridtolerance="10"
     guidetolerance="10"
     inkscape:pageopacity="0"
     inkscape:pageshadow="2"
     inkscape:window-width="1920"
     inkscape:window-height="1009"
     id="namedview453"
     showgrid="false"
     fit-margin-top="0"
     fit-margin-left="0"
     fit-margin-right="0"
     fit-margin-bottom="0"
     inkscape:zoom="0.71818182"
     inkscape:cx="112.50544"
     inkscape:cy="361.75806"
     inkscape:window-x="0"
     inkscape:window-y="0"
     inkscape:window-maximized="1"
     inkscape:current-layer="svg451" />
  <defs
     id="defs76">
    <g
       id="g74">
      <symbol
         overflow="visible"
         id="glyph0-0"
         style="overflow:visible">
        <path
           style="stroke:none"
           d="m 1.75,0 v -8.75 h 7 V 0 Z m 0.21875,-0.21875 h 6.5625 v -8.3125 h -6.5625 z m 0,0"
           id="path2"
           inkscape:connector-curvature="0" />
      </symbol>
      <symbol
         overflow="visible"
         id="glyph0-1"
         style="overflow:visible">
        <path
           style="stroke:none"
           d="M 5.21875,0 H 3.984375 V -7.84375 C 3.691406,-7.5625 3.300781,-7.273438 2.8125,-6.984375 c -0.480469,0.28125 -0.90625,0.492187 -1.28125,0.625 v -1.1875 C 2.21875,-7.867188 2.816406,-8.257812 3.328125,-8.71875 3.847656,-9.175781 4.210938,-9.625 4.421875,-10.0625 H 5.21875 Z m 0,0"
           id="path5"
           inkscape:connector-curvature="0" />
      </symbol>
      <symbol
         overflow="visible"
         id="glyph0-2"
         style="overflow:visible">
        <path
           style="stroke:none"
           d="M 0.109375,0 2.75,-3.78125 0.296875,-7.265625 H 1.84375 L 2.953125,-5.5625 c 0.207031,0.324219 0.375,0.59375 0.5,0.8125 0.207031,-0.300781 0.394531,-0.566406 0.5625,-0.796875 l 1.21875,-1.71875 h 1.46875 l -2.5,3.421875 L 6.890625,0 h -1.5 l -1.5,-2.25 L 3.5,-2.859375 1.59375,0 Z m 0,0"
           id="path8"
           inkscape:connector-curvature="0" />
      </symbol>
      <symbol
         overflow="visible"
         id="glyph0-3"
         style="overflow:visible">
        <path
           style="stroke:none"
           d=""
           id="path11"
           inkscape:connector-curvature="0" />
      </symbol>
      <symbol
         overflow="visible"
         id="glyph0-4"
         style="overflow:visible">
        <path
           style="stroke:none"
           d="M 5.65625,-2.65625 6.875,-2.5 c -0.136719,0.835938 -0.480469,1.492188 -1.03125,1.96875 -0.542969,0.46875 -1.210938,0.703125 -2,0.703125 -0.992188,0 -1.789062,-0.320313 -2.390625,-0.96875 -0.605469,-0.65625 -0.90625,-1.59375 -0.90625,-2.8125 0,-0.78125 0.128906,-1.460937 0.390625,-2.046875 0.257812,-0.59375 0.65625,-1.035156 1.1875,-1.328125 0.53125,-0.289063 1.109375,-0.4375 1.734375,-0.4375 0.78125,0 1.421875,0.199219 1.921875,0.59375 C 6.289062,-6.429688 6.613281,-5.863281 6.75,-5.125 L 5.5625,-4.9375 C 5.445312,-5.425781 5.242188,-5.789062 4.953125,-6.03125 c -0.292969,-0.25 -0.640625,-0.375 -1.046875,-0.375 -0.625,0 -1.132812,0.226562 -1.515625,0.671875 -0.386719,0.4375 -0.578125,1.136719 -0.578125,2.09375 0,0.980469 0.1875,1.695313 0.5625,2.140625 0.375,0.4375 0.859375,0.65625 1.453125,0.65625 0.488281,0 0.894531,-0.144531 1.21875,-0.4375 0.320313,-0.300781 0.523437,-0.757812 0.609375,-1.375 z m 0,0"
           id="path14"
           inkscape:connector-curvature="0" />
      </symbol>
      <symbol
         overflow="visible"
         id="glyph0-5"
         style="overflow:visible">
        <path
           style="stroke:none"
           d="m 0.46875,-3.625 c 0,-1.34375 0.375,-2.34375 1.125,-3 0.613281,-0.53125 1.375,-0.796875 2.28125,-0.796875 0.988281,0 1.800781,0.328125 2.4375,0.984375 0.632812,0.648438 0.953125,1.546875 0.953125,2.703125 0,0.9375 -0.140625,1.679687 -0.421875,2.21875 -0.28125,0.53125 -0.695312,0.949219 -1.234375,1.25 C 5.078125,0.0234375 4.5,0.171875 3.875,0.171875 2.851562,0.171875 2.03125,-0.15625 1.40625,-0.8125 0.78125,-1.46875 0.46875,-2.40625 0.46875,-3.625 Z m 1.265625,0 c 0,0.929688 0.203125,1.625 0.609375,2.09375 0.40625,0.460938 0.914062,0.6875 1.53125,0.6875 0.601562,0 1.109375,-0.234375 1.515625,-0.703125 C 5.796875,-2.015625 6,-2.722656 6,-3.671875 6,-4.566406 5.796875,-5.242188 5.390625,-5.703125 4.984375,-6.171875 4.476562,-6.40625 3.875,-6.40625 c -0.617188,0 -1.125,0.230469 -1.53125,0.6875 C 1.9375,-5.257812 1.734375,-4.5625 1.734375,-3.625 Z m 0,0"
           id="path17"
           inkscape:connector-curvature="0" />
      </symbol>
      <symbol
         overflow="visible"
         id="glyph0-6"
         style="overflow:visible">
        <path
           style="stroke:none"
           d="M 0.921875,0 V -7.265625 H 2.03125 v 1.03125 c 0.53125,-0.789063 1.300781,-1.1875 2.3125,-1.1875 0.4375,0 0.835938,0.078125 1.203125,0.234375 0.363281,0.15625 0.632813,0.367188 0.8125,0.625 0.1875,0.25 0.316406,0.554688 0.390625,0.90625 0.050781,0.230469 0.078125,0.625 0.078125,1.1875 V 0 H 5.59375 v -4.421875 c 0,-0.5 -0.046875,-0.867187 -0.140625,-1.109375 C 5.359375,-5.78125 5.1875,-5.976562 4.9375,-6.125 4.695312,-6.28125 4.410156,-6.359375 4.078125,-6.359375 c -0.523437,0 -0.976563,0.167969 -1.359375,0.5 -0.375,0.335937 -0.5625,0.964844 -0.5625,1.890625 V 0 Z m 0,0"
           id="path20"
           inkscape:connector-curvature="0" />
      </symbol>
      <symbol
         overflow="visible"
         id="glyph0-7"
         style="overflow:visible">
        <path
           style="stroke:none"
           d="M 2.9375,0 0.171875,-7.265625 h 1.3125 L 3.03125,-2.90625 c 0.164062,0.46875 0.320312,0.953125 0.46875,1.453125 0.113281,-0.382813 0.265625,-0.84375 0.453125,-1.375 l 1.625,-4.4375 H 6.84375 L 4.09375,0 Z m 0,0"
           id="path23"
           inkscape:connector-curvature="0" />
      </symbol>
      <symbol
         overflow="visible"
         id="glyph0-8"
         style="overflow:visible">
        <path
           style="stroke:none"
           d="M 0.890625,0 V -10.015625 H 2.125 V 0 Z m 0,0"
           id="path26"
           inkscape:connector-curvature="0" />
      </symbol>
      <symbol
         overflow="visible"
         id="glyph0-9"
         style="overflow:visible">
        <path
           style="stroke:none"
           d="M 5.6875,0 V -1.0625 C 5.113281,-0.238281 4.34375,0.171875 3.375,0.171875 c -0.429688,0 -0.828125,-0.0859375 -1.203125,-0.25 -0.367187,-0.164063 -0.640625,-0.375 -0.828125,-0.625 -0.179688,-0.25 -0.304688,-0.550781 -0.375,-0.90625 -0.054688,-0.238281 -0.078125,-0.625 -0.078125,-1.15625 v -4.5 H 2.125 v 4.03125 c 0,0.648437 0.023438,1.078125 0.078125,1.296875 0.070313,0.324219 0.234375,0.578125 0.484375,0.765625 0.25,0.1875 0.5625,0.28125 0.9375,0.28125 0.363281,0 0.707031,-0.09375 1.03125,-0.28125 0.320312,-0.195313 0.550781,-0.457031 0.6875,-0.78125 C 5.476562,-2.273438 5.546875,-2.75 5.546875,-3.375 V -7.265625 H 6.78125 V 0 Z m 0,0"
           id="path29"
           inkscape:connector-curvature="0" />
      </symbol>
      <symbol
         overflow="visible"
         id="glyph0-10"
         style="overflow:visible">
        <path
           style="stroke:none"
           d="M 3.609375,-1.09375 3.78125,-0.015625 C 3.4375,0.0546875 3.128906,0.09375 2.859375,0.09375 2.410156,0.09375 2.0625,0.0234375 1.8125,-0.109375 1.570312,-0.253906 1.398438,-0.441406 1.296875,-0.671875 1.203125,-0.898438 1.15625,-1.382812 1.15625,-2.125 V -6.296875 H 0.25 v -0.96875 H 1.15625 V -9.0625 L 2.375,-9.796875 v 2.53125 h 1.234375 v 0.96875 H 2.375 V -2.0625 c 0,0.355469 0.019531,0.585938 0.0625,0.6875 0.039062,0.09375 0.109375,0.171875 0.203125,0.234375 0.101563,0.0625 0.242187,0.09375 0.421875,0.09375 0.144531,0 0.328125,-0.015625 0.546875,-0.046875 z m 0,0"
           id="path32"
           inkscape:connector-curvature="0" />
      </symbol>
      <symbol
         overflow="visible"
         id="glyph0-11"
         style="overflow:visible">
        <path
           style="stroke:none"
           d="m 0.9375,-8.609375 v -1.40625 h 1.21875 v 1.40625 z M 0.9375,0 V -7.265625 H 2.15625 V 0 Z m 0,0"
           id="path35"
           inkscape:connector-curvature="0" />
      </symbol>
      <symbol
         overflow="visible"
         id="glyph0-12"
         style="overflow:visible">
        <path
           style="stroke:none"
           d="m 0.4375,-2.171875 1.203125,-0.1875 c 0.070313,0.492187 0.265625,0.867187 0.578125,1.125 0.3125,0.261719 0.75,0.390625 1.3125,0.390625 0.5625,0 0.976562,-0.113281 1.25,-0.34375 0.28125,-0.226562 0.421875,-0.5 0.421875,-0.8125 0,-0.28125 -0.125,-0.5 -0.375,-0.65625 -0.167969,-0.113281 -0.585937,-0.253906 -1.25,-0.421875 C 2.671875,-3.304688 2.039062,-3.503906 1.6875,-3.671875 1.34375,-3.835938 1.082031,-4.066406 0.90625,-4.359375 0.726562,-4.648438 0.640625,-4.972656 0.640625,-5.328125 c 0,-0.320313 0.070313,-0.617187 0.21875,-0.890625 C 1.003906,-6.5 1.207031,-6.734375 1.46875,-6.921875 c 0.1875,-0.132813 0.441406,-0.25 0.765625,-0.34375 0.332031,-0.101563 0.691406,-0.15625 1.078125,-0.15625 0.5625,0 1.054688,0.085937 1.484375,0.25 0.4375,0.15625 0.757813,0.375 0.96875,0.65625 0.207031,0.28125 0.347656,0.65625 0.421875,1.125 L 4.984375,-5.21875 C 4.929688,-5.59375 4.769531,-5.882812 4.5,-6.09375 4.238281,-6.300781 3.867188,-6.40625 3.390625,-6.40625 c -0.5625,0 -0.964844,0.09375 -1.203125,0.28125 -0.242188,0.179688 -0.359375,0.398438 -0.359375,0.65625 0,0.15625 0.046875,0.296875 0.140625,0.421875 0.101562,0.136719 0.265625,0.246094 0.484375,0.328125 0.113281,0.042969 0.472656,0.148438 1.078125,0.3125 0.875,0.242188 1.484375,0.433594 1.828125,0.578125 0.34375,0.148437 0.609375,0.359375 0.796875,0.640625 0.195312,0.28125 0.296875,0.632812 0.296875,1.046875 0,0.417969 -0.121094,0.808594 -0.359375,1.171875 C 5.863281,-0.613281 5.519531,-0.332031 5.0625,-0.125 4.613281,0.0703125 4.101562,0.171875 3.53125,0.171875 c -0.9375,0 -1.65625,-0.1953125 -2.15625,-0.59375 -0.492188,-0.394531 -0.804688,-0.976563 -0.9375,-1.75 z m 0,0"
           id="path38"
           inkscape:connector-curvature="0" />
      </symbol>
      <symbol
         overflow="visible"
         id="glyph0-13"
         style="overflow:visible">
        <path
           style="stroke:none"
           d="M 0.59375,-2.640625 1.8125,-2.8125 c 0.144531,0.699219 0.382812,1.203125 0.71875,1.515625 0.34375,0.304687 0.757812,0.453125 1.25,0.453125 0.582031,0 1.070312,-0.195312 1.46875,-0.59375 0.394531,-0.40625 0.59375,-0.90625 0.59375,-1.5 0,-0.5625 -0.1875,-1.023438 -0.5625,-1.390625 C 4.914062,-4.691406 4.453125,-4.875 3.890625,-4.875 c -0.242187,0 -0.53125,0.042969 -0.875,0.125 L 3.15625,-5.828125 c 0.082031,0.011719 0.144531,0.015625 0.1875,0.015625 0.53125,0 1.003906,-0.132812 1.421875,-0.40625 0.414063,-0.269531 0.625,-0.691406 0.625,-1.265625 0,-0.445313 -0.152344,-0.816406 -0.453125,-1.109375 C 4.632812,-8.894531 4.238281,-9.046875 3.75,-9.046875 c -0.480469,0 -0.882812,0.152344 -1.203125,0.453125 C 2.234375,-8.300781 2.03125,-7.851562 1.9375,-7.25 L 0.71875,-7.46875 c 0.144531,-0.820312 0.484375,-1.457031 1.015625,-1.90625 0.53125,-0.457031 1.191406,-0.6875 1.984375,-0.6875 0.550781,0 1.054688,0.121094 1.515625,0.359375 0.457031,0.230469 0.804687,0.546875 1.046875,0.953125 0.25,0.40625 0.375,0.839844 0.375,1.296875 0,0.429687 -0.117188,0.820313 -0.34375,1.171875 -0.230469,0.355469 -0.574219,0.640625 -1.03125,0.859375 0.59375,0.136719 1.050781,0.417969 1.375,0.84375 0.332031,0.429687 0.5,0.96875 0.5,1.625 0,0.875 -0.324219,1.617187 -0.96875,2.21875 -0.636719,0.605469 -1.4375,0.90625 -2.40625,0.90625 -0.886719,0 -1.621094,-0.2578125 -2.203125,-0.78125 C 1.003906,-1.128906 0.675781,-1.804688 0.59375,-2.640625 Z m 0,0"
           id="path41"
           inkscape:connector-curvature="0" />
      </symbol>
      <symbol
         overflow="visible"
         id="glyph0-14"
         style="overflow:visible">
        <path
           style="stroke:none"
           d="M 0.578125,-2.625 1.875,-2.734375 c 0.09375,0.625 0.3125,1.101563 0.65625,1.421875 0.351562,0.3125 0.773438,0.46875 1.265625,0.46875 0.59375,0 1.09375,-0.222656 1.5,-0.671875 0.414063,-0.445313 0.625,-1.035156 0.625,-1.765625 0,-0.707031 -0.199219,-1.265625 -0.59375,-1.671875 C 4.929688,-5.359375 4.414062,-5.5625 3.78125,-5.5625 c -0.398438,0 -0.757812,0.09375 -1.078125,0.28125 -0.3125,0.179688 -0.5625,0.40625 -0.75,0.6875 l -1.15625,-0.140625 0.96875,-5.15625 H 6.75 v 1.1875 h -4 l -0.53125,2.6875 c 0.601562,-0.414063 1.234375,-0.625 1.890625,-0.625 0.875,0 1.609375,0.304687 2.203125,0.90625 0.601562,0.605469 0.90625,1.386719 0.90625,2.34375 0,0.90625 -0.261719,1.6875 -0.78125,2.34375 -0.648438,0.8125 -1.527344,1.21875 -2.640625,1.21875 -0.90625,0 -1.652344,-0.2539062 -2.234375,-0.765625 C 0.988281,-1.101562 0.660156,-1.78125 0.578125,-2.625 Z m 0,0"
           id="path44"
           inkscape:connector-curvature="0" />
      </symbol>
      <symbol
         overflow="visible"
         id="glyph0-15"
         style="overflow:visible">
        <path
           style="stroke:none"
           d="m 1.15625,0 v -10.015625 h 6.75 v 1.171875 h -5.4375 v 3.109375 h 4.703125 v 1.1875 H 2.46875 V 0 Z m 0,0"
           id="path47"
           inkscape:connector-curvature="0" />
      </symbol>
      <symbol
         overflow="visible"
         id="glyph0-16"
         style="overflow:visible">
        <path
           style="stroke:none"
           d="m 5.890625,-2.34375 1.28125,0.15625 c -0.210937,0.75 -0.585937,1.335938 -1.125,1.75 C 5.503906,-0.03125 4.8125,0.171875 3.96875,0.171875 2.90625,0.171875 2.0625,-0.15625 1.4375,-0.8125 0.820312,-1.46875 0.515625,-2.382812 0.515625,-3.5625 c 0,-1.226562 0.3125,-2.175781 0.9375,-2.84375 0.632813,-0.675781 1.453125,-1.015625 2.453125,-1.015625 0.96875,0 1.757812,0.335937 2.375,1 0.613281,0.65625 0.921875,1.585937 0.921875,2.78125 0,0.074219 0,0.183594 0,0.328125 H 1.78125 c 0.050781,0.792969 0.273438,1.402344 0.671875,1.828125 0.40625,0.429687 0.914063,0.640625 1.53125,0.640625 0.445313,0 0.828125,-0.117188 1.140625,-0.359375 0.320312,-0.238281 0.578125,-0.617187 0.765625,-1.140625 z M 1.859375,-4.328125 H 5.90625 C 5.851562,-4.941406 5.695312,-5.398438 5.4375,-5.703125 5.050781,-6.171875 4.546875,-6.40625 3.921875,-6.40625 c -0.574219,0 -1.054687,0.1875 -1.4375,0.5625 -0.375,0.375 -0.585937,0.882812 -0.625,1.515625 z m 0,0"
           id="path50"
           inkscape:connector-curvature="0" />
      </symbol>
      <symbol
         overflow="visible"
         id="glyph0-17"
         style="overflow:visible">
        <path
           style="stroke:none"
           d="m 0.90625,0 v -7.265625 h 1.109375 v 1.109375 c 0.28125,-0.519531 0.539063,-0.859375 0.78125,-1.015625 0.238281,-0.164063 0.503906,-0.25 0.796875,-0.25 0.414062,0 0.835938,0.132813 1.265625,0.390625 L 4.4375,-5.890625 C 4.132812,-6.066406 3.832031,-6.15625 3.53125,-6.15625 c -0.273438,0 -0.515625,0.085938 -0.734375,0.25 C 2.585938,-5.75 2.4375,-5.523438 2.34375,-5.234375 c -0.136719,0.4375 -0.203125,0.917969 -0.203125,1.4375 V 0 Z m 0,0"
           id="path53"
           inkscape:connector-curvature="0" />
      </symbol>
      <symbol
         overflow="visible"
         id="glyph0-18"
         style="overflow:visible">
        <path
           style="stroke:none"
           d="M 5.65625,-0.890625 C 5.207031,-0.503906 4.769531,-0.226562 4.34375,-0.0625 3.925781,0.09375 3.472656,0.171875 2.984375,0.171875 c -0.792969,0 -1.40625,-0.1914062 -1.84375,-0.578125 C 0.710938,-0.800781 0.5,-1.304688 0.5,-1.921875 0.5,-2.273438 0.578125,-2.597656 0.734375,-2.890625 0.898438,-3.179688 1.113281,-3.414062 1.375,-3.59375 1.644531,-3.769531 1.941406,-3.90625 2.265625,-4 c 0.238281,-0.0625 0.601563,-0.125 1.09375,-0.1875 1,-0.113281 1.734375,-0.253906 2.203125,-0.421875 0,-0.164063 0,-0.269531 0,-0.3125 0,-0.507813 -0.117188,-0.863281 -0.34375,-1.0625 C 4.90625,-6.265625 4.4375,-6.40625 3.8125,-6.40625 c -0.574219,0 -1,0.105469 -1.28125,0.3125 -0.273438,0.199219 -0.476562,0.554688 -0.609375,1.0625 L 0.71875,-5.1875 C 0.820312,-5.707031 1,-6.125 1.25,-6.4375 1.507812,-6.75 1.875,-6.988281 2.34375,-7.15625 2.820312,-7.332031 3.375,-7.421875 4,-7.421875 c 0.613281,0 1.113281,0.074219 1.5,0.21875 0.382812,0.148437 0.664062,0.328125 0.84375,0.546875 0.1875,0.21875 0.316406,0.5 0.390625,0.84375 0.039063,0.210938 0.0625,0.585938 0.0625,1.125 v 1.640625 c 0,1.148437 0.023437,1.871094 0.078125,2.171875 C 6.925781,-0.570312 7.03125,-0.28125 7.1875,0 H 5.90625 c -0.125,-0.257812 -0.210938,-0.554688 -0.25,-0.890625 z m -0.09375,-2.75 c -0.449219,0.179687 -1.121094,0.335937 -2.015625,0.46875 -0.5,0.074219 -0.859375,0.15625 -1.078125,0.25 C 2.257812,-2.835938 2.097656,-2.707031 1.984375,-2.53125 1.867188,-2.351562 1.8125,-2.160156 1.8125,-1.953125 c 0,0.335937 0.125,0.609375 0.375,0.828125 0.25,0.21875 0.613281,0.328125 1.09375,0.328125 0.476562,0 0.898438,-0.101563 1.265625,-0.3125 0.363281,-0.207031 0.632813,-0.492187 0.8125,-0.859375 C 5.492188,-2.238281 5.5625,-2.644531 5.5625,-3.1875 Z m 0,0"
           id="path56"
           inkscape:connector-curvature="0" />
      </symbol>
      <symbol
         overflow="visible"
         id="glyph0-19"
         style="overflow:visible">
        <path
           style="stroke:none"
           d="m 1.078125,0 v -10.015625 h 3.78125 c 0.664063,0 1.175781,0.03125 1.53125,0.09375 0.488281,0.085937 0.898437,0.242187 1.234375,0.46875 0.332031,0.230469 0.597656,0.554687 0.796875,0.96875 0.207031,0.40625 0.3125,0.859375 0.3125,1.359375 0,0.855469 -0.273437,1.578125 -0.8125,2.171875 -0.542969,0.585937 -1.523437,0.875 -2.9375,0.875 H 2.40625 V 0 Z M 2.40625,-5.25 H 5 c 0.851562,0 1.457031,-0.160156 1.8125,-0.484375 0.363281,-0.320313 0.546875,-0.769531 0.546875,-1.34375 0,-0.425781 -0.105469,-0.785156 -0.3125,-1.078125 C 6.835938,-8.457031 6.554688,-8.65625 6.203125,-8.75 5.984375,-8.8125 5.570312,-8.84375 4.96875,-8.84375 h -2.5625 z m 0,0"
           id="path59"
           inkscape:connector-curvature="0" />
      </symbol>
      <symbol
         overflow="visible"
         id="glyph0-20"
         style="overflow:visible">
        <path
           style="stroke:none"
           d="M 0.875,2.796875 0.734375,1.640625 C 1.003906,1.710938 1.238281,1.75 1.4375,1.75 1.707031,1.75 1.925781,1.703125 2.09375,1.609375 2.257812,1.523438 2.394531,1.398438 2.5,1.234375 2.570312,1.109375 2.695312,0.800781 2.875,0.3125 2.894531,0.25 2.929688,0.148438 2.984375,0.015625 L 0.21875,-7.265625 H 1.546875 L 3.0625,-3.0625 c 0.195312,0.542969 0.375,1.105469 0.53125,1.6875 0.132812,-0.5625 0.300781,-1.113281 0.5,-1.65625 L 5.640625,-7.265625 H 6.875 L 4.109375,0.125 C 3.816406,0.914062 3.585938,1.460938 3.421875,1.765625 3.203125,2.171875 2.953125,2.46875 2.671875,2.65625 2.390625,2.851562 2.050781,2.953125 1.65625,2.953125 1.425781,2.953125 1.164062,2.898438 0.875,2.796875 Z m 0,0"
           id="path62"
           inkscape:connector-curvature="0" />
      </symbol>
      <symbol
         overflow="visible"
         id="glyph0-21"
         style="overflow:visible">
        <path
           style="stroke:none"
           d="M 0.921875,0 V -7.265625 H 2.03125 v 1.03125 C 2.25,-6.597656 2.546875,-6.882812 2.921875,-7.09375 3.304688,-7.3125 3.738281,-7.421875 4.21875,-7.421875 c 0.539062,0 0.984375,0.117187 1.328125,0.34375 0.34375,0.21875 0.585937,0.527344 0.734375,0.921875 C 6.851562,-7 7.597656,-7.421875 8.515625,-7.421875 c 0.71875,0 1.269531,0.199219 1.65625,0.59375 0.394531,0.398437 0.59375,1.011719 0.59375,1.84375 V 0 H 9.53125 v -4.578125 c 0,-0.488281 -0.042969,-0.84375 -0.125,-1.0625 C 9.332031,-5.859375 9.191406,-6.03125 8.984375,-6.15625 8.773438,-6.289062 8.53125,-6.359375 8.25,-6.359375 c -0.511719,0 -0.9375,0.171875 -1.28125,0.515625 -0.335938,0.335938 -0.5,0.875 -0.5,1.625 V 0 H 5.234375 v -4.71875 c 0,-0.539062 -0.101563,-0.945312 -0.296875,-1.21875 -0.199219,-0.28125 -0.527344,-0.421875 -0.984375,-0.421875 -0.34375,0 -0.667969,0.09375 -0.96875,0.28125 -0.292969,0.179687 -0.507813,0.445313 -0.640625,0.796875 -0.125,0.34375 -0.1875,0.851562 -0.1875,1.515625 V 0 Z m 0,0"
           id="path65"
           inkscape:connector-curvature="0" />
      </symbol>
      <symbol
         overflow="visible"
         id="glyph0-22"
         style="overflow:visible">
        <path
           style="stroke:none"
           d="M 0.921875,2.78125 V -7.265625 h 1.125 V -6.3125 c 0.257813,-0.375 0.554687,-0.648438 0.890625,-0.828125 0.332031,-0.1875 0.738281,-0.28125 1.21875,-0.28125 0.613281,0 1.15625,0.164063 1.625,0.484375 0.476562,0.3125 0.835938,0.761719 1.078125,1.34375 0.238281,0.585938 0.359375,1.21875 0.359375,1.90625 0,0.742188 -0.136719,1.414062 -0.40625,2.015625 -0.261719,0.59375 -0.648438,1.054687 -1.15625,1.375 -0.5,0.3125 -1.03125,0.46875 -1.59375,0.46875 -0.40625,0 -0.777344,-0.0898438 -1.109375,-0.265625 C 2.628906,-0.269531 2.363281,-0.488281 2.15625,-0.75 v 3.53125 z m 1.109375,-6.375 c 0,0.9375 0.1875,1.632812 0.5625,2.078125 0.382812,0.449219 0.847656,0.671875 1.390625,0.671875 0.539063,0 1.003906,-0.226562 1.390625,-0.6875 C 5.769531,-2 5.96875,-2.71875 5.96875,-3.6875 c 0,-0.925781 -0.195312,-1.617188 -0.578125,-2.078125 -0.375,-0.457031 -0.828125,-0.6875 -1.359375,-0.6875 -0.523438,0 -0.984375,0.246094 -1.390625,0.734375 -0.40625,0.492188 -0.609375,1.199219 -0.609375,2.125 z m 0,0"
           id="path68"
           inkscape:connector-curvature="0" />
      </symbol>
      <symbol
         overflow="visible"
         id="glyph0-23"
         style="overflow:visible">
        <path
           style="stroke:none"
           d="m 0.703125,0.609375 1.1875,0.171875 c 0.050781,0.363281 0.191406,0.632812 0.421875,0.8125 0.300781,0.21875 0.71875,0.328125 1.25,0.328125 0.570312,0 1.007812,-0.117187 1.3125,-0.34375 C 5.1875,1.359375 5.398438,1.039062 5.515625,0.625 5.578125,0.375 5.601562,-0.148438 5.59375,-0.953125 5.0625,-0.316406 4.394531,0 3.59375,0 c -1,0 -1.777344,-0.359375 -2.328125,-1.078125 -0.542969,-0.71875 -0.8125,-1.582031 -0.8125,-2.59375 0,-0.6875 0.125,-1.320313 0.375,-1.90625 0.25,-0.59375 0.609375,-1.046875 1.078125,-1.359375 0.476562,-0.320312 1.039062,-0.484375 1.6875,-0.484375 0.851562,0 1.5625,0.34375 2.125,1.03125 v -0.875 h 1.125 v 6.28125 c 0,1.132813 -0.117188,1.9375 -0.34375,2.40625 C 6.269531,1.890625 5.90625,2.257812 5.40625,2.53125 4.90625,2.8125 4.289062,2.953125 3.5625,2.953125 2.695312,2.953125 2,2.753906 1.46875,2.359375 0.9375,1.972656 0.679688,1.390625 0.703125,0.609375 Z m 1.015625,-4.375 c 0,0.960937 0.1875,1.65625 0.5625,2.09375 0.375,0.4375 0.847656,0.65625 1.421875,0.65625 0.5625,0 1.035156,-0.21875 1.421875,-0.65625 0.382812,-0.4375 0.578125,-1.117187 0.578125,-2.046875 0,-0.882812 -0.199219,-1.550781 -0.59375,-2 -0.398437,-0.457031 -0.871094,-0.6875 -1.421875,-0.6875 -0.554688,0 -1.023438,0.226562 -1.40625,0.671875 -0.375,0.4375 -0.5625,1.09375 -0.5625,1.96875 z m 0,0"
           id="path71"
           inkscape:connector-curvature="0" />
      </symbol>
    </g>
  </defs>
  <g
     id="surface540"
     transform="translate(-17.07809,-6.1328)">
    <path
       style="fill:#ffffff;fill-opacity:1;fill-rule:nonzero;stroke:#636363;stroke-width:762;stroke-linecap:butt;stroke-linejoin:round;stroke-miterlimit:14.33558846;stroke-opacity:1"
       d="M 9056.6872,70159.56 H 75908.294 v 32496.12 H 9056.6872 Z m 0,0"
       transform="scale(0.0019685)"
       id="path78"
       inkscape:connector-curvature="0" />
    <g
       style="fill:#000000;fill-opacity:1"
       id="g112">
      <use
         xlink:href="#glyph0-1"
         x="31.510553"
         y="175.28548"
         id="use80"
         width="100%"
         height="100%" />
      <use
         xlink:href="#glyph0-2"
         x="39.294552"
         y="175.28548"
         id="use82"
         width="100%"
         height="100%" />
      <use
         xlink:href="#glyph0-1"
         x="46.294552"
         y="175.28548"
         id="use84"
         width="100%"
         height="100%" />
      <use
         xlink:href="#glyph0-3"
         x="54.078552"
         y="175.28548"
         id="use86"
         width="100%"
         height="100%" />
      <use
         xlink:href="#glyph0-4"
         x="57.956554"
         y="175.28548"
         id="use88"
         width="100%"
         height="100%" />
      <use
         xlink:href="#glyph0-5"
         x="64.956551"
         y="175.28548"
         id="use90"
         width="100%"
         height="100%" />
      <use
         xlink:href="#glyph0-6"
         x="72.740555"
         y="175.28548"
         id="use92"
         width="100%"
         height="100%" />
      <use
         xlink:href="#glyph0-7"
         x="80.524551"
         y="175.28548"
         id="use94"
         width="100%"
         height="100%" />
      <use
         xlink:href="#glyph0-5"
         x="87.524551"
         y="175.28548"
         id="use96"
         width="100%"
         height="100%" />
      <use
         xlink:href="#glyph0-8"
         x="95.308556"
         y="175.28548"
         id="use98"
         width="100%"
         height="100%" />
      <use
         xlink:href="#glyph0-9"
         x="98.41655"
         y="175.28548"
         id="use100"
         width="100%"
         height="100%" />
      <use
         xlink:href="#glyph0-10"
         x="106.20055"
         y="175.28548"
         id="use102"
         width="100%"
         height="100%" />
      <use
         xlink:href="#glyph0-11"
         x="110.07855"
         y="175.28548"
         id="use104"
         width="100%"
         height="100%" />
      <use
         xlink:href="#glyph0-5"
         x="113.18655"
         y="175.28548"
         id="use106"
         width="100%"
         height="100%" />
      <use
         xlink:href="#glyph0-6"
         x="120.97055"
         y="175.28548"
         id="use108"
         width="100%"
         height="100%" />
      <use
         xlink:href="#glyph0-12"
         x="128.75455"
         y="175.28548"
         id="use110"
         width="100%"
         height="100%" />
    </g>
    <path
       style="fill:#ffffff;fill-opacity:1;fill-rule:nonzero;stroke:#636363;stroke-width:762;stroke-linecap:butt;stroke-linejoin:round;stroke-miterlimit:14.33558846;stroke-opacity:1"
       d="M 99456.872,49918.936 H 166308.48 V 82415.06 H 99456.872 Z m 0,0"
       transform="scale(0.0019685)"
       id="path114"
       inkscape:connector-curvature="0" />
    <g
       style="fill:#000000;fill-opacity:1"
       id="g148">
      <use
         xlink:href="#glyph0-13"
         x="209.46332"
         y="135.44"
         id="use116"
         width="100%"
         height="100%" />
      <use
         xlink:href="#glyph0-2"
         x="217.24731"
         y="135.44"
         id="use118"
         width="100%"
         height="100%" />
      <use
         xlink:href="#glyph0-13"
         x="224.24731"
         y="135.44"
         id="use120"
         width="100%"
         height="100%" />
      <use
         xlink:href="#glyph0-3"
         x="232.03131"
         y="135.44"
         id="use122"
         width="100%"
         height="100%" />
      <use
         xlink:href="#glyph0-4"
         x="235.90932"
         y="135.44"
         id="use124"
         width="100%"
         height="100%" />
      <use
         xlink:href="#glyph0-5"
         x="242.90932"
         y="135.44"
         id="use126"
         width="100%"
         height="100%" />
      <use
         xlink:href="#glyph0-6"
         x="250.69331"
         y="135.44"
         id="use128"
         width="100%"
         height="100%" />
      <use
         xlink:href="#glyph0-7"
         x="258.47733"
         y="135.44"
         id="use130"
         width="100%"
         height="100%" />
      <use
         xlink:href="#glyph0-5"
         x="265.47733"
         y="135.44"
         id="use132"
         width="100%"
         height="100%" />
      <use
         xlink:href="#glyph0-8"
         x="273.26132"
         y="135.44"
         id="use134"
         width="100%"
         height="100%" />
      <use
         xlink:href="#glyph0-9"
         x="276.36932"
         y="135.44"
         id="use136"
         width="100%"
         height="100%" />
      <use
         xlink:href="#glyph0-10"
         x="284.15332"
         y="135.44"
         id="use138"
         width="100%"
         height="100%" />
      <use
         xlink:href="#glyph0-11"
         x="288.03131"
         y="135.44"
         id="use140"
         width="100%"
         height="100%" />
      <use
         xlink:href="#glyph0-5"
         x="291.13931"
         y="135.44"
         id="use142"
         width="100%"
         height="100%" />
      <use
         xlink:href="#glyph0-6"
         x="298.92331"
         y="135.44"
         id="use144"
         width="100%"
         height="100%" />
      <use
         xlink:href="#glyph0-12"
         x="306.70731"
         y="135.44"
         id="use146"
         width="100%"
         height="100%" />
    </g>
    <path
       style="fill:#ffffff;fill-opacity:1;fill-rule:nonzero;stroke:#636363;stroke-width:762;stroke-linecap:butt;stroke-linejoin:round;stroke-miterlimit:14.33558846;stroke-opacity:1"
       d="m 177782.13,49918.936 h 66853.6 V 82415.06 h -66853.6 z m 0,0"
       transform="scale(0.0019685)"
       id="path150"
       inkscape:connector-curvature="0" />
    <g
       style="fill:#000000;fill-opacity:1"
       id="g184">
      <use
         xlink:href="#glyph0-14"
         x="363.65033"
         y="135.44"
         id="use152"
         width="100%"
         height="100%" />
      <use
         xlink:href="#glyph0-2"
         x="371.43433"
         y="135.44"
         id="use154"
         width="100%"
         height="100%" />
      <use
         xlink:href="#glyph0-14"
         x="378.43433"
         y="135.44"
         id="use156"
         width="100%"
         height="100%" />
      <use
         xlink:href="#glyph0-3"
         x="386.21832"
         y="135.44"
         id="use158"
         width="100%"
         height="100%" />
      <use
         xlink:href="#glyph0-4"
         x="390.09631"
         y="135.44"
         id="use160"
         width="100%"
         height="100%" />
      <use
         xlink:href="#glyph0-5"
         x="397.09631"
         y="135.44"
         id="use162"
         width="100%"
         height="100%" />
      <use
         xlink:href="#glyph0-6"
         x="404.88031"
         y="135.44"
         id="use164"
         width="100%"
         height="100%" />
      <use
         xlink:href="#glyph0-7"
         x="412.66431"
         y="135.44"
         id="use166"
         width="100%"
         height="100%" />
      <use
         xlink:href="#glyph0-5"
         x="419.66431"
         y="135.44"
         id="use168"
         width="100%"
         height="100%" />
      <use
         xlink:href="#glyph0-8"
         x="427.44833"
         y="135.44"
         id="use170"
         width="100%"
         height="100%" />
      <use
         xlink:href="#glyph0-9"
         x="430.55634"
         y="135.44"
         id="use172"
         width="100%"
         height="100%" />
      <use
         xlink:href="#glyph0-10"
         x="438.34033"
         y="135.44"
         id="use174"
         width="100%"
         height="100%" />
      <use
         xlink:href="#glyph0-11"
         x="442.21832"
         y="135.44"
         id="use176"
         width="100%"
         height="100%" />
      <use
         xlink:href="#glyph0-5"
         x="445.32632"
         y="135.44"
         id="use178"
         width="100%"
         height="100%" />
      <use
         xlink:href="#glyph0-6"
         x="453.11032"
         y="135.44"
         id="use180"
         width="100%"
         height="100%" />
      <use
         xlink:href="#glyph0-12"
         x="460.89432"
         y="135.44"
         id="use182"
         width="100%"
         height="100%" />
    </g>
    <path
       style="fill:#ffffff;fill-opacity:1;fill-rule:nonzero;stroke:#636363;stroke-width:762;stroke-linecap:butt;stroke-linejoin:round;stroke-miterlimit:14.33558846;stroke-opacity:1"
       d="m 108739.78,3496.4686 h 66851.61 V 35990.608 h -66851.61 z m 0,0"
       transform="scale(0.0019685)"
       id="path186"
       inkscape:connector-curvature="0" />
    <g
       style="fill:#000000;fill-opacity:1"
       id="g202">
      <use
         xlink:href="#glyph0-15"
         x="264.30786"
         y="35.805157"
         id="use188"
         width="100%"
         height="100%" />
      <use
         xlink:href="#glyph0-11"
         x="272.84784"
         y="35.805157"
         id="use190"
         width="100%"
         height="100%" />
      <use
         xlink:href="#glyph0-8"
         x="275.95584"
         y="35.805157"
         id="use192"
         width="100%"
         height="100%" />
      <use
         xlink:href="#glyph0-10"
         x="279.06384"
         y="35.805157"
         id="use194"
         width="100%"
         height="100%" />
      <use
         xlink:href="#glyph0-16"
         x="282.94186"
         y="35.805157"
         id="use196"
         width="100%"
         height="100%" />
      <use
         xlink:href="#glyph0-17"
         x="290.72586"
         y="35.805157"
         id="use198"
         width="100%"
         height="100%" />
      <use
         xlink:href="#glyph0-3"
         x="295.38785"
         y="35.805157"
         id="use200"
         width="100%"
         height="100%" />
    </g>
    <g
       style="fill:#000000;fill-opacity:1"
       id="g230">
      <use
         xlink:href="#glyph0-4"
         x="236.28931"
         y="52.305157"
         id="use204"
         width="100%"
         height="100%" />
      <use
         xlink:href="#glyph0-5"
         x="243.28931"
         y="52.305157"
         id="use206"
         width="100%"
         height="100%" />
      <use
         xlink:href="#glyph0-6"
         x="251.07332"
         y="52.305157"
         id="use208"
         width="100%"
         height="100%" />
      <use
         xlink:href="#glyph0-4"
         x="258.8573"
         y="52.305157"
         id="use210"
         width="100%"
         height="100%" />
      <use
         xlink:href="#glyph0-18"
         x="265.8573"
         y="52.305157"
         id="use212"
         width="100%"
         height="100%" />
      <use
         xlink:href="#glyph0-10"
         x="273.64133"
         y="52.305157"
         id="use214"
         width="100%"
         height="100%" />
      <use
         xlink:href="#glyph0-16"
         x="277.51932"
         y="52.305157"
         id="use216"
         width="100%"
         height="100%" />
      <use
         xlink:href="#glyph0-6"
         x="285.30331"
         y="52.305157"
         id="use218"
         width="100%"
         height="100%" />
      <use
         xlink:href="#glyph0-18"
         x="293.08731"
         y="52.305157"
         id="use220"
         width="100%"
         height="100%" />
      <use
         xlink:href="#glyph0-10"
         x="300.87131"
         y="52.305157"
         id="use222"
         width="100%"
         height="100%" />
      <use
         xlink:href="#glyph0-11"
         x="304.7493"
         y="52.305157"
         id="use224"
         width="100%"
         height="100%" />
      <use
         xlink:href="#glyph0-5"
         x="307.8573"
         y="52.305157"
         id="use226"
         width="100%"
         height="100%" />
      <use
         xlink:href="#glyph0-6"
         x="315.64133"
         y="52.305157"
         id="use228"
         width="100%"
         height="100%" />
    </g>
    <path
       style="fill:#ffffff;fill-opacity:1;fill-rule:nonzero;stroke:#636363;stroke-width:762;stroke-linecap:butt;stroke-linejoin:round;stroke-miterlimit:14.33558846;stroke-opacity:1"
       d="m 108739.78,133230.93 h 66851.61 v 32496.13 h -66851.61 z m 0,0"
       transform="scale(0.0019685)"
       id="path232"
       inkscape:connector-curvature="0" />
    <g
       style="fill:#000000;fill-opacity:1"
       id="g262">
      <use
         xlink:href="#glyph0-19"
         x="235.52753"
         y="299.43903"
         id="use234"
         width="100%"
         height="100%" />
      <use
         xlink:href="#glyph0-17"
         x="244.85153"
         y="299.43903"
         id="use236"
         width="100%"
         height="100%" />
      <use
         xlink:href="#glyph0-16"
         x="249.51353"
         y="299.43903"
         id="use238"
         width="100%"
         height="100%" />
      <use
         xlink:href="#glyph0-7"
         x="257.29752"
         y="299.43903"
         id="use240"
         width="100%"
         height="100%" />
      <use
         xlink:href="#glyph0-11"
         x="264.29752"
         y="299.43903"
         id="use242"
         width="100%"
         height="100%" />
      <use
         xlink:href="#glyph0-5"
         x="267.40552"
         y="299.43903"
         id="use244"
         width="100%"
         height="100%" />
      <use
         xlink:href="#glyph0-9"
         x="275.18954"
         y="299.43903"
         id="use246"
         width="100%"
         height="100%" />
      <use
         xlink:href="#glyph0-12"
         x="282.97354"
         y="299.43903"
         id="use248"
         width="100%"
         height="100%" />
      <use
         xlink:href="#glyph0-3"
         x="289.97354"
         y="299.43903"
         id="use250"
         width="100%"
         height="100%" />
      <use
         xlink:href="#glyph0-8"
         x="293.85153"
         y="299.43903"
         id="use252"
         width="100%"
         height="100%" />
      <use
         xlink:href="#glyph0-18"
         x="296.95953"
         y="299.43903"
         id="use254"
         width="100%"
         height="100%" />
      <use
         xlink:href="#glyph0-20"
         x="304.74353"
         y="299.43903"
         id="use256"
         width="100%"
         height="100%" />
      <use
         xlink:href="#glyph0-16"
         x="311.74353"
         y="299.43903"
         id="use258"
         width="100%"
         height="100%" />
      <use
         xlink:href="#glyph0-17"
         x="319.52753"
         y="299.43903"
         id="use260"
         width="100%"
         height="100%" />
    </g>
    <path
       style="fill:none;stroke:#636363;stroke-width:762;stroke-linecap:butt;stroke-linejoin:round;stroke-miterlimit:14.33558846;stroke-opacity:1"
       d="M 42481.499,70159.56 137840.64,37478.889"
       transform="scale(0.0019685)"
       id="path264"
       inkscape:connector-curvature="0" />
    <path
       style="fill:#636363;fill-opacity:1;fill-rule:evenodd;stroke:#636363;stroke-width:762;stroke-linecap:butt;stroke-linejoin:miter;stroke-miterlimit:11.47371292;stroke-opacity:1"
       d="m 138249.42,38669.514 2863.45,-2311.796 -3679.03,-69.454 z m 0,0"
       transform="scale(0.0019685)"
       id="path266"
       inkscape:connector-curvature="0" />
    <path
       style="fill:none;stroke:#636363;stroke-width:762;stroke-linecap:butt;stroke-linejoin:round;stroke-miterlimit:14.33558846;stroke-opacity:1"
       d="m 132881.68,49918.936 6752.83,-10128.25"
       transform="scale(0.0019685)"
       id="path268"
       inkscape:connector-curvature="0" />
    <path
       style="fill:#636363;fill-opacity:1;fill-rule:evenodd;stroke:#636363;stroke-width:762;stroke-linecap:butt;stroke-linejoin:miter;stroke-miterlimit:11.47371292;stroke-opacity:1"
       d="m 140680.28,40489.186 871.14,-3575.843 -2964.66,2178.843 z m 0,0"
       transform="scale(0.0019685)"
       id="path270"
       inkscape:connector-curvature="0" />
    <path
       style="fill:none;stroke:#636363;stroke-width:762;stroke-linecap:butt;stroke-linejoin:round;stroke-miterlimit:14.33558846;stroke-opacity:1"
       d="M 211208.93,49918.936 146643.32,36891.514"
       transform="scale(0.0019685)"
       id="path272"
       inkscape:connector-curvature="0" />
    <path
       style="fill:#636363;fill-opacity:1;fill-rule:evenodd;stroke:#636363;stroke-width:762;stroke-linecap:butt;stroke-linejoin:miter;stroke-miterlimit:11.47371292;stroke-opacity:1"
       d="m 146891.37,35657.233 -3639.34,549.672 3141.26,1918.891 z m 0,0"
       transform="scale(0.0019685)"
       id="path274"
       inkscape:connector-curvature="0" />
    <path
       style="fill:#ffffff;fill-opacity:1;fill-rule:nonzero;stroke:#636363;stroke-width:762;stroke-linecap:butt;stroke-linejoin:round;stroke-miterlimit:14.33558846;stroke-opacity:1"
       d="m 259455.04,90404.153 h 66851.61 v 32496.127 h -66851.61 z m 0,0"
       transform="scale(0.0019685)"
       id="path276"
       inkscape:connector-curvature="0" />
    <g
       style="fill:#000000;fill-opacity:1"
       id="g308">
      <use
         xlink:href="#glyph0-13"
         x="525.59027"
         y="215.13391"
         id="use278"
         width="100%"
         height="100%" />
      <use
         xlink:href="#glyph0-2"
         x="533.37427"
         y="215.13391"
         id="use280"
         width="100%"
         height="100%" />
      <use
         xlink:href="#glyph0-13"
         x="540.37427"
         y="215.13391"
         id="use282"
         width="100%"
         height="100%" />
      <use
         xlink:href="#glyph0-3"
         x="548.15826"
         y="215.13391"
         id="use284"
         width="100%"
         height="100%" />
      <use
         xlink:href="#glyph0-21"
         x="552.03625"
         y="215.13391"
         id="use286"
         width="100%"
         height="100%" />
      <use
         xlink:href="#glyph0-18"
         x="563.6983"
         y="215.13391"
         id="use288"
         width="100%"
         height="100%" />
      <use
         xlink:href="#glyph0-2"
         x="571.4823"
         y="215.13391"
         id="use290"
         width="100%"
         height="100%" />
      <use
         xlink:href="#glyph0-3"
         x="578.4823"
         y="215.13391"
         id="use292"
         width="100%"
         height="100%" />
      <use
         xlink:href="#glyph0-22"
         x="582.36029"
         y="215.13391"
         id="use294"
         width="100%"
         height="100%" />
      <use
         xlink:href="#glyph0-5"
         x="590.14429"
         y="215.13391"
         id="use296"
         width="100%"
         height="100%" />
      <use
         xlink:href="#glyph0-5"
         x="597.92828"
         y="215.13391"
         id="use298"
         width="100%"
         height="100%" />
      <use
         xlink:href="#glyph0-8"
         x="605.71228"
         y="215.13391"
         id="use300"
         width="100%"
         height="100%" />
      <use
         xlink:href="#glyph0-11"
         x="608.82025"
         y="215.13391"
         id="use302"
         width="100%"
         height="100%" />
      <use
         xlink:href="#glyph0-6"
         x="611.92828"
         y="215.13391"
         id="use304"
         width="100%"
         height="100%" />
      <use
         xlink:href="#glyph0-23"
         x="619.71228"
         y="215.13391"
         id="use306"
         width="100%"
         height="100%" />
    </g>
    <path
       style="fill:none;stroke:#636363;stroke-width:762;stroke-linecap:butt;stroke-linejoin:round;stroke-miterlimit:14.33558846;stroke-opacity:1"
       d="M 142166.57,133230.93 288325.71,123211.82"
       transform="scale(0.0019685)"
       id="path310"
       inkscape:connector-curvature="0" />
    <path
       style="fill:#636363;fill-opacity:1;fill-rule:evenodd;stroke:#636363;stroke-width:762;stroke-linecap:butt;stroke-linejoin:miter;stroke-miterlimit:11.47371292;stroke-opacity:1"
       d="m 288411.04,124465.95 3363.51,-1492.25 -3536.15,-1017.99 z m 0,0"
       transform="scale(0.0019685)"
       id="path312"
       inkscape:connector-curvature="0" />
    <path
       style="fill:#ffffff;fill-opacity:1;fill-rule:nonzero;stroke:#636363;stroke-width:762;stroke-linecap:butt;stroke-linejoin:round;stroke-miterlimit:14.33558846;stroke-opacity:1"
       d="M 99456.872,90404.153 H 166308.48 V 122900.28 H 99456.872 Z m 0,0"
       transform="scale(0.0019685)"
       id="path314"
       inkscape:connector-curvature="0" />
    <g
       style="fill:#000000;fill-opacity:1"
       id="g348">
      <use
         xlink:href="#glyph0-1"
         x="209.46332"
         y="215.13391"
         id="use316"
         width="100%"
         height="100%" />
      <use
         xlink:href="#glyph0-2"
         x="217.24731"
         y="215.13391"
         id="use318"
         width="100%"
         height="100%" />
      <use
         xlink:href="#glyph0-1"
         x="224.24731"
         y="215.13391"
         id="use320"
         width="100%"
         height="100%" />
      <use
         xlink:href="#glyph0-3"
         x="232.03131"
         y="215.13391"
         id="use322"
         width="100%"
         height="100%" />
      <use
         xlink:href="#glyph0-4"
         x="235.90932"
         y="215.13391"
         id="use324"
         width="100%"
         height="100%" />
      <use
         xlink:href="#glyph0-5"
         x="242.90932"
         y="215.13391"
         id="use326"
         width="100%"
         height="100%" />
      <use
         xlink:href="#glyph0-6"
         x="250.69331"
         y="215.13391"
         id="use328"
         width="100%"
         height="100%" />
      <use
         xlink:href="#glyph0-7"
         x="258.47733"
         y="215.13391"
         id="use330"
         width="100%"
         height="100%" />
      <use
         xlink:href="#glyph0-5"
         x="265.47733"
         y="215.13391"
         id="use332"
         width="100%"
         height="100%" />
      <use
         xlink:href="#glyph0-8"
         x="273.26132"
         y="215.13391"
         id="use334"
         width="100%"
         height="100%" />
      <use
         xlink:href="#glyph0-9"
         x="276.36932"
         y="215.13391"
         id="use336"
         width="100%"
         height="100%" />
      <use
         xlink:href="#glyph0-10"
         x="284.15332"
         y="215.13391"
         id="use338"
         width="100%"
         height="100%" />
      <use
         xlink:href="#glyph0-11"
         x="288.03131"
         y="215.13391"
         id="use340"
         width="100%"
         height="100%" />
      <use
         xlink:href="#glyph0-5"
         x="291.13931"
         y="215.13391"
         id="use342"
         width="100%"
         height="100%" />
      <use
         xlink:href="#glyph0-6"
         x="298.92331"
         y="215.13391"
         id="use344"
         width="100%"
         height="100%" />
      <use
         xlink:href="#glyph0-12"
         x="306.70731"
         y="215.13391"
         id="use346"
         width="100%"
         height="100%" />
    </g>
    <path
       style="fill:#ffffff;fill-opacity:1;fill-rule:nonzero;stroke:#636363;stroke-width:762;stroke-linecap:butt;stroke-linejoin:round;stroke-miterlimit:14.33558846;stroke-opacity:1"
       d="m 177782.13,90404.153 h 66853.6 v 32496.127 h -66853.6 z m 0,0"
       transform="scale(0.0019685)"
       id="path350"
       inkscape:connector-curvature="0" />
    <g
       style="fill:#000000;fill-opacity:1"
       id="g384">
      <use
         xlink:href="#glyph0-1"
         x="363.65033"
         y="215.13391"
         id="use352"
         width="100%"
         height="100%" />
      <use
         xlink:href="#glyph0-2"
         x="371.43433"
         y="215.13391"
         id="use354"
         width="100%"
         height="100%" />
      <use
         xlink:href="#glyph0-1"
         x="378.43433"
         y="215.13391"
         id="use356"
         width="100%"
         height="100%" />
      <use
         xlink:href="#glyph0-3"
         x="386.21832"
         y="215.13391"
         id="use358"
         width="100%"
         height="100%" />
      <use
         xlink:href="#glyph0-4"
         x="390.09631"
         y="215.13391"
         id="use360"
         width="100%"
         height="100%" />
      <use
         xlink:href="#glyph0-5"
         x="397.09631"
         y="215.13391"
         id="use362"
         width="100%"
         height="100%" />
      <use
         xlink:href="#glyph0-6"
         x="404.88031"
         y="215.13391"
         id="use364"
         width="100%"
         height="100%" />
      <use
         xlink:href="#glyph0-7"
         x="412.66431"
         y="215.13391"
         id="use366"
         width="100%"
         height="100%" />
      <use
         xlink:href="#glyph0-5"
         x="419.66431"
         y="215.13391"
         id="use368"
         width="100%"
         height="100%" />
      <use
         xlink:href="#glyph0-8"
         x="427.44833"
         y="215.13391"
         id="use370"
         width="100%"
         height="100%" />
      <use
         xlink:href="#glyph0-9"
         x="430.55634"
         y="215.13391"
         id="use372"
         width="100%"
         height="100%" />
      <use
         xlink:href="#glyph0-10"
         x="438.34033"
         y="215.13391"
         id="use374"
         width="100%"
         height="100%" />
      <use
         xlink:href="#glyph0-11"
         x="442.21832"
         y="215.13391"
         id="use376"
         width="100%"
         height="100%" />
      <use
         xlink:href="#glyph0-5"
         x="445.32632"
         y="215.13391"
         id="use378"
         width="100%"
         height="100%" />
      <use
         xlink:href="#glyph0-6"
         x="453.11032"
         y="215.13391"
         id="use380"
         width="100%"
         height="100%" />
      <use
         xlink:href="#glyph0-12"
         x="460.89432"
         y="215.13391"
         id="use382"
         width="100%"
         height="100%" />
    </g>
    <path
       style="fill:#ffffff;fill-opacity:1;fill-rule:nonzero;stroke:#636363;stroke-width:762;stroke-linecap:butt;stroke-linejoin:round;stroke-miterlimit:14.33558846;stroke-opacity:1"
       d="m 259455.04,49918.936 h 66851.61 V 82415.06 h -66851.61 z m 0,0"
       transform="scale(0.0019685)"
       id="path386"
       inkscape:connector-curvature="0" />
    <g
       style="fill:#000000;fill-opacity:1"
       id="g420">
      <use
         xlink:href="#glyph0-1"
         x="524.422"
         y="135.44098"
         id="use388"
         width="100%"
         height="100%" />
      <use
         xlink:href="#glyph0-2"
         x="532.20599"
         y="135.44098"
         id="use390"
         width="100%"
         height="100%" />
      <use
         xlink:href="#glyph0-1"
         x="539.20599"
         y="135.44098"
         id="use392"
         width="100%"
         height="100%" />
      <use
         xlink:href="#glyph0-3"
         x="546.98999"
         y="135.44098"
         id="use394"
         width="100%"
         height="100%" />
      <use
         xlink:href="#glyph0-4"
         x="550.86798"
         y="135.44098"
         id="use396"
         width="100%"
         height="100%" />
      <use
         xlink:href="#glyph0-5"
         x="557.86798"
         y="135.44098"
         id="use398"
         width="100%"
         height="100%" />
      <use
         xlink:href="#glyph0-6"
         x="565.65198"
         y="135.44098"
         id="use400"
         width="100%"
         height="100%" />
      <use
         xlink:href="#glyph0-7"
         x="573.43597"
         y="135.44098"
         id="use402"
         width="100%"
         height="100%" />
      <use
         xlink:href="#glyph0-5"
         x="580.43597"
         y="135.44098"
         id="use404"
         width="100%"
         height="100%" />
      <use
         xlink:href="#glyph0-8"
         x="588.21997"
         y="135.44098"
         id="use406"
         width="100%"
         height="100%" />
      <use
         xlink:href="#glyph0-9"
         x="591.328"
         y="135.44098"
         id="use408"
         width="100%"
         height="100%" />
      <use
         xlink:href="#glyph0-10"
         x="599.112"
         y="135.44098"
         id="use410"
         width="100%"
         height="100%" />
      <use
         xlink:href="#glyph0-11"
         x="602.98999"
         y="135.44098"
         id="use412"
         width="100%"
         height="100%" />
      <use
         xlink:href="#glyph0-5"
         x="606.09796"
         y="135.44098"
         id="use414"
         width="100%"
         height="100%" />
      <use
         xlink:href="#glyph0-6"
         x="613.88196"
         y="135.44098"
         id="use416"
         width="100%"
         height="100%" />
      <use
         xlink:href="#glyph0-12"
         x="621.66595"
         y="135.44098"
         id="use418"
         width="100%"
         height="100%" />
    </g>
    <path
       style="fill:none;stroke:#636363;stroke-width:762;stroke-linecap:butt;stroke-linejoin:round;stroke-miterlimit:14.33558846;stroke-opacity:1"
       d="M 132881.68,90404.153 V 86983.091"
       transform="scale(0.0019685)"
       id="path422"
       inkscape:connector-curvature="0" />
    <path
       style="fill:#636363;fill-opacity:1;fill-rule:evenodd;stroke:#636363;stroke-width:762;stroke-linecap:butt;stroke-linejoin:miter;stroke-miterlimit:11.47371292;stroke-opacity:1"
       d="m 134139.78,86983.091 -1258.1,-3456.781 -1258.09,3456.781 z m 0,0"
       transform="scale(0.0019685)"
       id="path424"
       inkscape:connector-curvature="0" />
    <path
       style="fill:none;stroke:#636363;stroke-width:762;stroke-linecap:butt;stroke-linejoin:round;stroke-miterlimit:14.33558846;stroke-opacity:1"
       d="M 211208.93,90404.153 V 86983.091"
       transform="scale(0.0019685)"
       id="path426"
       inkscape:connector-curvature="0" />
    <path
       style="fill:#636363;fill-opacity:1;fill-rule:evenodd;stroke:#636363;stroke-width:762;stroke-linecap:butt;stroke-linejoin:miter;stroke-miterlimit:11.47371292;stroke-opacity:1"
       d="m 212467.02,86983.091 -1258.09,-3456.781 -1258.09,3456.781 z m 0,0"
       transform="scale(0.0019685)"
       id="path428"
       inkscape:connector-curvature="0" />
    <path
       style="fill:none;stroke:#636363;stroke-width:762;stroke-linecap:butt;stroke-linejoin:round;stroke-miterlimit:14.33558846;stroke-opacity:1"
       d="M 292881.83,90408.122 V 86987.06"
       transform="scale(0.0019685)"
       id="path430"
       inkscape:connector-curvature="0" />
    <path
       style="fill:#636363;fill-opacity:1;fill-rule:evenodd;stroke:#636363;stroke-width:762;stroke-linecap:butt;stroke-linejoin:miter;stroke-miterlimit:11.47371292;stroke-opacity:1"
       d="m 294139.93,86987.06 -1258.1,-3456.781 -1260.07,3456.781 z m 0,0"
       transform="scale(0.0019685)"
       id="path432"
       inkscape:connector-curvature="0" />
    <path
       style="fill:none;stroke:#636363;stroke-width:762;stroke-linecap:butt;stroke-linejoin:round;stroke-miterlimit:14.33558846;stroke-opacity:1"
       d="m 143490.15,133482.95 -7371.95,-7354.09"
       transform="scale(0.0019685)"
       id="path434"
       inkscape:connector-curvature="0" />
    <path
       style="fill:#636363;fill-opacity:1;fill-rule:evenodd;stroke:#636363;stroke-width:762;stroke-linecap:butt;stroke-linejoin:miter;stroke-miterlimit:11.47371292;stroke-opacity:1"
       d="m 137007.2,125237.87 -3335.74,-1551.78 1557.74,3333.75 z m 0,0"
       transform="scale(0.0019685)"
       id="path436"
       inkscape:connector-curvature="0" />
    <path
       style="fill:none;stroke:#636363;stroke-width:762;stroke-linecap:butt;stroke-linejoin:round;stroke-miterlimit:14.33558846;stroke-opacity:1"
       d="m 142166.57,133230.93 64525.92,-9655.97"
       transform="scale(0.0019685)"
       id="path438"
       inkscape:connector-curvature="0" />
    <path
       style="fill:#636363;fill-opacity:1;fill-rule:evenodd;stroke:#636363;stroke-width:762;stroke-linecap:butt;stroke-linejoin:miter;stroke-miterlimit:11.47371292;stroke-opacity:1"
       d="m 206879.02,124819.17 3232.55,-1756.17 -3605.61,-732.24 z m 0,0"
       transform="scale(0.0019685)"
       id="path440"
       inkscape:connector-curvature="0" />
    <path
       style="fill:none;stroke:#636363;stroke-width:762;stroke-linecap:butt;stroke-linejoin:round;stroke-miterlimit:14.33558846;stroke-opacity:1"
       d="m 142166.57,133230.93 c 0,-3536.15 -24921.76,-3250.4 -49843.526,-7072.31 -12459.89,-1910.95 -24919.781,-4849.81 -34266.186,-8778.87 -4671.219,-1964.53 -8566.547,-4177.11 -11291.094,-6631.78 -682.625,-615.16 -1289.844,-1244.21 -1819.672,-1887.15 -263.922,-323.45 -509.984,-648.89 -734.218,-978.29 -111.125,-164.71 -218.282,-331.39 -321.469,-498.08 -49.61,-83.34 -99.219,-166.69 -148.828,-250.03 l -39.688,-73.42"
       transform="scale(0.0019685)"
       id="path442"
       inkscape:connector-curvature="0" />
    <path
       style="fill:#636363;fill-opacity:1;fill-rule:evenodd;stroke:#636363;stroke-width:762;stroke-linecap:butt;stroke-linejoin:miter;stroke-miterlimit:11.47371292;stroke-opacity:1"
       d="m 44914.342,106725.64 -2135.187,-2998.39 -291.703,3669.11 z m 0,0"
       transform="scale(0.0019685)"
       id="path444"
       inkscape:connector-curvature="0" />
    <path
       style="fill:none;stroke:#636363;stroke-width:762;stroke-linecap:butt;stroke-linejoin:round;stroke-miterlimit:14.33558846;stroke-opacity:1"
       d="M 292881.83,49918.936 146712.78,36409.311"
       transform="scale(0.0019685)"
       id="path446"
       inkscape:connector-curvature="0" />
    <path
       style="fill:#636363;fill-opacity:1;fill-rule:evenodd;stroke:#636363;stroke-width:762;stroke-linecap:butt;stroke-linejoin:miter;stroke-miterlimit:11.47371292;stroke-opacity:1"
       d="m 146829.85,35155.186 -3559.96,934.641 3327.79,1571.625 z m 0,0"
       transform="scale(0.0019685)"
       id="path448"
       inkscape:connector-curvature="0" />
  </g>
</svg>
